{
    "projectName": "NewFeed",
    "version": "3.0",
    "frontend": "android",
    "android": {
        "config": {
            "ResDir": "app/src/main/res"
        }
    },
    "providers": [
        "awscloudformation"
    ]
}